/* XPM */
static char * stick_inactive_xpm[] = {
"33 37 5 1",
"       c None",
".      c #C0C0FF s inactive_color_2",
"@      c #949594 s inactive_shadow_1",
"#      c #000000 s inactive_text_color",
"$      c #B4BAB4 s inactive_mid_1",
".................................",
".................................",
".................................",
".................................",
".................................",
".................................",
".................................",
".................................",
".................................",
".................................",
".................................",
".................................",
".................................",
".................................",
".................................",
"...............###...............",
"...............###...............",
"...............$#$...............",
"............##$.$.$##............",
"............###$.$###............",
"............##$.$.$##............",
"...............$#$...............",
"...............###...............",
"...............###...............",
".................................",
".................................",
".................................",
".................................",
".................................",
".................................",
".................................",
".................................",
".................................",
".................................",
".................................",
".................................",
"................................."};
